661868 350801 509
470934 479841 382
835550 42797 509
600196 763570 509
211949 50061 383
760391 736969 424
552477 443606 470
234387 945472 525
889528 806940 525
387836 505476 449
11734 320975 443
75426 930650 525
563761 551529 421
869655 859648 388
632443 811740 504
970166 110116 525
391909 551706 470
341298 32269 443
208867 695897 509
487173 977430 525
451484 997689 525
243381 212926 443
860906 812472 525
296143 634963 509
741349 986192 525
663535 550237 509
60857 85390 351
694380 20566 509
418953 556399 470
369480 92360 443
760357 577860 509
309078 340265 384
910888 640879 525
709413 327986 509
329718 649440 509
813972 517334 509
177818 899437 525
218230 181120 386
408742 954681 525
59888 105411 351
541245 21800 470
123761 849634 525
474865 637608 509
308126 734025 509
839175 435873 525
823595 419068 509
572169 326464 470
96017 900438 525
576232 2647 470
555871 550717 421
498226 857226 525
693510 842277 525
218153 267229 443
793200 381510 509
508938 771864 509
358778 39745 443
527623 776358 509
229589 426270 449
359491 178145 443
270886 775620 509
315211 72313 443
369019 270728 441
933162 920283 476
766171 128300 509
231497 733315 509
39064 753855 509
361784 974233 525
187274 620711 470
133060 327632 443
369498 722023 509
728368 2357 509
552970 428868 470
265017 786355 509
742157 609074 509
758079 952114 525
452604 923795 525
333387 391328 441
424301 789572 509
290913 947518 525
939043 452716 525
241287 656455 509
289503 1927 443
929188 892561 476
845765 746822 525
280789 236618 407
834981 720407 468
630287 718355 504
597957 845063 525
958468 782929 525
948839 267394 525
573682 308056 470
859404 912089 476
983223 415602 525
56993 616951 470
10884 619084 470
782720 351930 509
510089 566526 470
618783 514404 452
754116 910362 525
818686 929611 525
289533 355047 441
156256 113189 383
123123 966291 525
124594 784674 509
327772 701601 509
608545 233258 470
555548 666961 509
75868 754705 509
514915 116934 470
701989 782746 504
387947 478713 449
943327 138976 525
606301 841005 525
121495 585807 470
506036 970379 525
47031 170106 383
979586 833781 525
610421 528072 452
582638 639525 509
488620 455600 444
483060 126044 449
322569 162654 443
656457 243557 509
120618 532502 470
941714 92979 525
312746 558937 470
81982 131040 354
201995 563111 470
98408 265094 443
487219 171065 449
322244 379132 441
667450 413112 509
254267 691344 509
447920 56523 449
844033 452903 525
761526 516113 509
810410 946158 525
165465 969494 525
23700 897400 525
163768 792983 509
366773 496403 449
472492 371441 449
861639 210167 525
586654 777753 509
607057 727039 509
604217 643261 509
974138 492707 525
616302 94152 470
301799 881210 525
720703 376426 509
29799 349473 443
962937 59272 525
881540 844800 432
753085 283622 509
730267 490624 509
365564 414793 449
440994 343924 449
883187 49150 525
399753 528720 470
553147 788357 509
817744 588804 509
990343 76709 525
266367 732473 509
543355 646701 509
865550 936927 476
569250 199145 470
724985 96022 509
305284 490163 449
230361 369354 443
943349 201927 525
854733 247738 525
516864 228182 470
533863 29680 470
289230 294456 358
834189 449841 509
43039 470866 449
702604 837359 504
406260 18172 443
75093 772824 509
222427 182305 386
402489 265085 441
99689 338172 443
759220 887744 525
107501 983325 525
989917 518236 525
662474 188214 509
304266 107262 443
436611 541806 470
506080 542925 470
768687 33541 509
832816 35022 509
602338 227516 470
446748 923109 525
576115 90286 470
827805 516647 509
218221 78002 386
504539 675158 509
817595 646396 504
263714 213607 443
713554 191675 509
585525 945811 525
114477 214942 383
209827 89805 383
190424 921388 525
634537 720955 504
294131 511993 470
135565 688290 509
462879 285615 449
812509 109723 509
871895 830360 525
69800 627264 509
767824 100562 509
274159 119212 443
261301 134914 443
539403 365414 470
173823 749213 509
360479 397770 436
374357 180035 443
51179 444334 449
266636 361119 441
584162 140334 470
414164 849723 525
590353 79749 470
208412 184179 373
63852 99624 351
585353 752150 509
25351 758383 509
523284 119367 470
8322 791598 509
781449 656100 504
20532 551484 470
