305405 266103 407
672728 180139 509
55390 576701 470
586012 226753 470
916701 192935 525
727578 877731 525
222981 253849 443
934339 606058 525
7738 202229 383
923330 480048 525
340959 186622 443
847635 849754 326
973214 77319 525
183830 203290 360
197254 926689 525
116853 140829 344
137774 250542 443
459885 28798 449
471319 732479 509
812111 20365 509
4626 515144 470
63533 892848 525
16039 181198 383
620590 242762 470
170049 226531 386
194194 95762 383
518314 891318 525
720568 132069 509
618311 726561 509
186018 65570 383
713789 775441 468
506737 415656 444
223650 307329 443
147267 76109 375
881716 750815 525
711945 514076 509
305708 803623 509
462642 716479 509
681156 940407 525
144789 852179 525
524865 339654 470
68732 192536 383
8218 663850 509
220532 578113 470
251980 913024 525
634947 814883 504
842453 447833 525
123049 378262 443
153523 91390 375
977732 178688 525
733117 441312 509
758660 766950 380
980438 784473 525
869034 445350 525
942965 818350 525
204827 122648 383
179859 194868 365
146335 608141 470
270402 485805 449
361807 48367 443
894989 21656 525
319074 246313 407
22326 963185 525
381812 552012 470
758044 580675 509
433969 127333 449
732900 257738 509
88311 298611 443
418394 212262 449
831015 623535 509
341629 996817 525
1880 27091 308
25610 73070 340
993321 519815 525
747680 40690 509
679548 964242 525
768858 150946 509
694143 256395 509
941674 484236 525
616999 664161 509
512736 318094 470
286760 755152 509
263744 957587 525
796751 785504 468
719780 409485 509
832715 943568 525
408408 941938 525
361020 136154 443
937216 515319 525
774313 292768 509
793874 299363 509
602087 502063 470
663129 255880 509
254960 959017 525
290738 982106 525
683006 236576 509
960136 257705 525
26861 562349 470
937546 446271 525
376644 830907 509
160838 812129 509
311774 542708 470
287514 616306 470
153682 698887 509
1840 799018 509
378614 618288 470
463394 312955 449
419008 902374 525
599967 520921 452
65127 626626 509
703464 14311 509
816700 39417 509
387074 982015 525
948364 723427 525
19879 848 279
826844 548784 509
890566 999957 507
374988 781641 509
141356 195478 383
391335 712633 509
627351 888500 525
577397 250524 470
956793 80022 525
888456 829110 525
479887 743325 509
3465 486280 449
720444 249073 509
497543 487224 426
131402 295917 443
374693 465873 449
130947 828828 509
181648 627060 509
230002 803518 509
21008 858400 525
844672 515525 525
61672 134222 354
972739 44861 525
408215 457299 449
432586 645246 509
460759 681500 509
62113 51704 340
74266 623590 470
408013 160020 443
79793 568636 470
188405 750199 509
601798 379524 470
164185 268990 443
259873 571947 470
150918 45981 375
431840 599507 470
320333 741679 509
333915 280660 389
882739 269635 525
937109 537976 525
857122 692986 525
718459 549671 509
683849 74384 509
537694 470815 470
25506 979796 525
854631 848670 419
29042 915173 525
679604 709904 504
945661 183319 525
308267 703446 509
481813 610124 470
404996 658799 509
644430 234285 509
692626 973058 525
144203 857465 525
543677 113913 470
950655 553173 525
511809 661962 509
523679 43941 470
554686 760864 509
708196 791258 468
273963 819744 509
681408 970776 525
959510 14705 525
797162 524234 509
762092 604766 509
449711 31969 449
444983 344504 449
163423 100708 383
419343 296745 449
219421 760902 509
176878 512713 470
547853 14277 470
954015 106233 525
821269 814628 450
231569 464563 449
393589 188241 443
376384 64726 443
954196 941717 414
388987 285174 441
278340 149358 443
445520 407843 449
577442 545984 452
558355 313112 470
989401 358700 525
229156 391942 443
362229 306958 441
795052 697210 504
721952 32344 509
104353 693390 509
81324 310263 443
905889 781497 525
83429 723083 509
103729 116423 354
980864 731243 525
570656 127426 470
894904 990436 507
491443 530943 470
909904 999727 507
40560 276631 443
810363 492017 509
15386 231225 443
68012 372302 443
918203 933833 476
856343 659430 525
532406 176336 470
805720 278020 509
368895 692960 509
