647430 222738 509
637352 759013 504
53319 684779 509
754863 600662 509
392779 580521 470
157685 130984 383
955868 617246 525
887050 263029 525
777103 334431 509
793164 990208 525
299789 669536 509
573674 894349 525
138855 458023 449
315807 974238 525
702781 158396 509
830539 912551 525
226890 824540 509
833741 528561 509
127186 135412 344
307151 995797 525
662891 809495 504
888554 412584 525
522929 775208 509
710677 862929 525
824342 594885 509
422958 428121 418
858544 535857 525
216953 533770 470
982503 818862 525
170397 3751 383
366391 282251 441
814101 956364 525
796664 547108 509
653633 509778 509
220690 711349 509
576207 269101 470
428792 858894 525
893426 80925 525
496897 214352 449
57480 441818 449
898874 234706 525
93066 706643 509
82651 444999 449
76711 852725 525
759816 466104 509
181104 620757 470
463452 885249 525
161018 258011 443
696501 852463 525
138074 109927 349
586745 481541 470
739534 531530 509
851060 809388 525
825526 603705 509
711250 73804 509
766507 13807 509
990223 15961 525
10410 764797 509
94415 593052 470
59596 987253 525
591131 437866 470
527633 348855 470
979660 366305 525
573803 843175 525
748248 336128 509
787789 166015 509
686966 253102 509
642243 716794 504
92251 589808 470
632101 90554 509
51669 554067 470
322893 920536 525
194122 238526 443
800279 366174 509
303440 65499 443
437833 679446 509
876858 929509 476
253148 74767 443
566430 892547 525
182468 556116 470
301927 36888 443
104283 785950 509
712320 407832 509
474359 164522 449
981049 934692 507
353038 120832 443
318056 333621 384
9400 858714 525
607955 237942 470
204341 259200 443
320640 793972 509
41074 784891 509
365774 571063 470
671489 389400 509
706918 829086 468
71116 693713 509
206598 411995 449
508898 472691 426
328957 648597 509
210333 401577 443
755272 667977 504
966652 539991 525
322472 14507 443
540784 361003 470
896830 495368 525
502604 303438 449
345622 983189 525
306486 220855 443
865979 634483 525
250990 189903 443
778698 736054 468
933634 988809 507
926833 814778 525
938479 697417 525
811198 275930 509
325493 798524 509
674360 396783 509
766674 729342 424
128166 151699 375
803238 114302 509
805912 540979 509
627745 134679 509
720808 586114 509
696807 250851 509
214199 757783 509
129189 666841 509
66660 350631 443
374743 191391 443
301609 337144 384
834975 127677 509
330564 134462 443
2915 185583 383
770274 771888 349
782839 786515 375
314796 48353 443
741843 866687 525
941732 227733 525
443194 730231 509
446333 267262 449
199574 317755 443
796131 400247 509
836977 731681 468
486933 742876 509
554789 577430 421
622019 825828 509
548614 376994 470
962435 879620 507
379868 56785 443
363710 484349 449
705188 70463 509
224551 480478 449
326541 590428 470
736073 499113 509
319376 161074 443
578729 837175 509
255769 781775 509
297507 126759 443
786261 823137 468
381420 183081 443
135672 837738 509
575839 449814 470
420773 364669 449
897052 921679 476
730194 469629 509
850638 234859 525
931624 229286 525
677083 432336 509
380422 931781 525
370193 344775 441
151869 233350 443
826551 875260 525
306613 744853 509
308219 804400 509
664111 566587 509
820199 974504 525
364312 266407 441
584086 678323 509
665669 341244 509
834317 991157 525
124695 317590 443
186401 914432 525
885605 320419 525
132162 944411 525
437400 617377 470
82693 24283 351
222026 902952 525
283204 703251 509
209917 522024 470
77824 349836 443
129841 594750 470
154602 133229 375
160149 639066 509
41981 481621 449
659887 489695 509
723687 243361 509
926801 607764 525
421074 697089 509
109474 194001 383
527554 122530 470
293123 955409 525
700308 937043 525
453450 361613 449
429801 330011 449
247052 328535 407
207406 603499 470
25488 620962 470
562005 321726 470
400761 27924 443
315543 262325 407
189146 640469 509
338510 395213 441
340798 154081 443
434452 331852 449
978695 702206 525
130713 432996 449
666606 571353 509
96658 198528 383
60102 551852 470
747695 972813 525
988657 271300 525
239897 129678 443
21578 841089 525
211705 200098 373
167442 435265 449
951149 914412 507
267947 775679 509
529422 309912 470
105359 711056 509
249567 561475 470
531766 54334 470
666250 617913 509
95295 376337 443
167172 18816 383
784201 636731 504
742663 486964 509
978141 967436 458
112179 13009 354
137818 326395 443
137536 825672 509
7014 447091 449
107654 897093 525
200757 299008 443
286362 880933 525
869634 769999 525
810858 201217 509
181132 584407 470
539344 983607 525
499229 832353 509
895523 305434 525
846544 838093 401
177201 680681 509
769753 298727 509
45232 969756 525
605919 507587 470
106899 404039 443
